
319.37, 319.07, 22.10611111111111
319.16, 318.99, 22.109166666666667
318.5, 317.93, 22.111944444444447
318.37, 318.08, 22.115000000000002
318.16, 317.81, 22.118055555555557
317.68, 317.6, 22.12138888888889
317.63, 317.51, 22.124444444444446